<define-tag pagetitle>DLA-880-1 tiff3</define-tag>
<define-tag report_date>2017-3-30</define-tag>
<define-tag secrefs>CVE-2015-8781 CVE-2015-8782 CVE-2015-8783 CVE-2015-8784 CVE-2016-9533 CVE-2016-9534 CVE-2016-9535</define-tag>
<define-tag packages>tiff3</define-tag>
<define-tag isvulnerable>yes</define-tag>
<define-tag fixed>yes</define-tag>
<define-tag fixed-section>no</define-tag>

#use wml::debian::security

