<define-tag pagetitle>DLA-866-1 libxslt</define-tag>
<define-tag report_date>2017-3-23</define-tag>
<define-tag secrefs>CVE-2017-5029 Bug#858546</define-tag>
<define-tag packages>libxslt</define-tag>
<define-tag isvulnerable>yes</define-tag>
<define-tag fixed>yes</define-tag>
<define-tag fixed-section>no</define-tag>

#use wml::debian::security

