<define-tag pagetitle>DLA-693-2 tiff</define-tag>
<define-tag report_date>2017-2-7</define-tag>
<define-tag secrefs>Bug#852610</define-tag>
<define-tag packages>tiff</define-tag>
<define-tag isvulnerable>yes</define-tag>
<define-tag fixed>yes</define-tag>
<define-tag fixed-section>no</define-tag>

#use wml::debian::security

