<define-tag pagetitle>DLA-1079-1 libdbd-mysql-perl</define-tag>
<define-tag report_date>2017-8-31</define-tag>
<define-tag secrefs>CVE-2017-10788 CVE-2017-10789 Bug#866818 Bug#866821</define-tag>
<define-tag packages>libdbd-mysql-perl</define-tag>
<define-tag isvulnerable>yes</define-tag>
<define-tag fixed>yes</define-tag>
<define-tag fixed-section>no</define-tag>

#use wml::debian::security

