<define-tag pagetitle>DLA-825-1 spice</define-tag>
<define-tag report_date>2017-2-17</define-tag>
<define-tag secrefs>CVE-2016-9577 CVE-2016-9578 Bug#854336</define-tag>
<define-tag packages>spice</define-tag>
<define-tag isvulnerable>yes</define-tag>
<define-tag fixed>yes</define-tag>
<define-tag fixed-section>no</define-tag>

#use wml::debian::security

