<define-tag pagetitle>DLA-761-2 python-bottle</define-tag>
<define-tag report_date>2017-1-15</define-tag>
<define-tag secrefs>Bug#850176</define-tag>
<define-tag packages>python-bottle</define-tag>
<define-tag isvulnerable>yes</define-tag>
<define-tag fixed>yes</define-tag>
<define-tag fixed-section>no</define-tag>

#use wml::debian::security

