<define-tag pagetitle>DLA-1134-1 sdl-image1.2</define-tag>
<define-tag report_date>2017-10-16</define-tag>
<define-tag secrefs>CVE-2017-2887 Bug##878267</define-tag>
<define-tag packages>sdl-image1.2</define-tag>
<define-tag isvulnerable>yes</define-tag>
<define-tag fixed>yes</define-tag>
<define-tag fixed-section>no</define-tag>

#use wml::debian::security

