<define-tag pagetitle>DLA-959-1 libical</define-tag>
<define-tag report_date>2017-5-28</define-tag>
<define-tag secrefs>CVE-2016-5824 CVE-2016-9584 Bug##860451 Bug##852034</define-tag>
<define-tag packages>libical</define-tag>
<define-tag isvulnerable>yes</define-tag>
<define-tag fixed>yes</define-tag>
<define-tag fixed-section>no</define-tag>

#use wml::debian::security

