<define-tag pagetitle>DLA-1093-1 tiff</define-tag>
<define-tag report_date>2017-9-10</define-tag>
<define-tag secrefs>CVE-2017-11335 CVE-2017-12944 CVE-2017-13726 CVE-2017-13727 Bug#868513 Bug#872607 Bug#873880 Bug#873879</define-tag>
<define-tag packages>tiff</define-tag>
<define-tag isvulnerable>yes</define-tag>
<define-tag fixed>yes</define-tag>
<define-tag fixed-section>no</define-tag>

#use wml::debian::security

