<define-tag pagetitle>DLA-1167-1 ruby-yajl</define-tag>
<define-tag report_date>2017-11-8</define-tag>
<define-tag secrefs>CVE-2017-16516 Bug#880691</define-tag>
<define-tag packages>ruby-yajl</define-tag>
<define-tag isvulnerable>yes</define-tag>
<define-tag fixed>yes</define-tag>
<define-tag fixed-section>no</define-tag>

#use wml::debian::security

