<define-tag pagetitle>DLA-1378-1 tiff3</define-tag>
<define-tag report_date>2018-5-14</define-tag>
<define-tag secrefs>CVE-2018-8905 Bug#893806</define-tag>
<define-tag packages>tiff3</define-tag>
<define-tag isvulnerable>yes</define-tag>
<define-tag fixed>yes</define-tag>
<define-tag fixed-section>no</define-tag>

#use wml::debian::security

