<define-tag pagetitle>DLA-1603-1 suricata</define-tag>
<define-tag report_date>2018-12-4</define-tag>
<define-tag secrefs>CVE-2017-7177 CVE-2017-15377 CVE-2018-6794 Bug#856648 Bug#889842 Bug#856649</define-tag>
<define-tag packages>suricata</define-tag>
<define-tag isvulnerable>yes</define-tag>
<define-tag fixed>yes</define-tag>
<define-tag fixed-section>no</define-tag>

#use wml::debian::security

