<define-tag pagetitle>DLA-1392-1 linux</define-tag>
<define-tag report_date>2018-6-1</define-tag>
<define-tag secrefs>CVE-2018-1093 CVE-2018-1130 CVE-2018-8897 CVE-2018-10940 Bug#898100</define-tag>
<define-tag packages>linux</define-tag>
<define-tag isvulnerable>yes</define-tag>
<define-tag fixed>yes</define-tag>
<define-tag fixed-section>no</define-tag>

#use wml::debian::security

