<define-tag pagetitle>DLA-531-1 spice</define-tag>
<define-tag report_date>2016-6-27</define-tag>
<define-tag secrefs>CVE-2016-2150 Bug#826584</define-tag>
<define-tag packages>spice</define-tag>
<define-tag isvulnerable>yes</define-tag>
<define-tag fixed>yes</define-tag>
<define-tag fixed-section>no</define-tag>

#use wml::debian::security

