<define-tag pagetitle>DLA-493-1 openafs</define-tag>
<define-tag report_date>2016-5-29</define-tag>
<define-tag secrefs>CVE-2015-8312 CVE-2016-2860 CVE-2016-4536</define-tag>
<define-tag packages>openafs</define-tag>
<define-tag isvulnerable>yes</define-tag>
<define-tag fixed>yes</define-tag>
<define-tag fixed-section>no</define-tag>

#use wml::debian::security

